{ "compressionlevel":-1,
 "editorsettings":
    {
     "export":
        {
         "format":"json",
         "target":"homestead1.json"
        }
    },
 "height":25,
 "infinite":false,
 "layers":[
        {
         "data":[21, 18, 21, 19, 24, 23, 18, 22, 20, 24, 20, 20, 22, 22, 18, 21, 22, 20, 20, 24, 18, 25, 18, 23, 20, 17, 25, 20, 20, 20, 23, 23, 20, 19, 24, 20, 23, 22, 25, 23, 21, 25, 18, 19, 25, 24, 21, 20, 24, 19, 24, 24, 19, 22, 23, 25, 17, 20, 20, 25, 20, 20, 19, 20, 22, 23, 19, 24, 24, 21, 22, 20, 19, 19, 23, 24, 21, 19, 23, 17, 19, 23, 18, 22, 21, 22, 21, 19, 19, 25, 23, 19, 24, 18, 23, 20, 18, 22, 18, 18, 19, 19, 23, 25, 20, 19, 21, 18, 25, 25, 23, 25, 18, 19, 21, 25, 22, 24, 21, 22, 19, 20, 22, 21, 19, 17, 21, 22, 25, 22, 19, 19, 18, 23, 19, 18, 19, 23, 17, 20, 18, 17, 17, 23, 24, 24, 18, 20, 21, 20, 25, 19, 17, 19, 19, 20, 21, 20, 22, 24, 25, 19, 18, 17, 23, 25, 21, 23, 19, 24, 22, 20, 21, 23, 25, 25, 19, 18, 24, 24, 22, 21, 18, 23, 25, 22, 22, 18, 22, 24, 18, 17, 20, 17, 17, 21, 24, 22, 22, 22, 24, 24, 21, 22, 17, 24, 25, 19, 17, 20, 17, 21, 18, 25, 21, 22, 17, 21, 17, 24, 17, 22, 24, 25, 23, 21, 23, 19, 22, 21, 22, 24, 23, 24, 18, 20, 17, 23, 17, 17, 17, 17, 17, 17, 17, 17, 17, 17, 20, 18, 20, 20, 17, 21, 17, 19, 18, 19, 25, 24, 23, 24, 24, 20, 17, 18, 20, 20, 19, 23, 18, 22, 18, 21, 25, 22, 21, 22, 25, 19, 25, 18, 17, 17, 17, 17, 17, 17, 17, 17, 17, 17, 17, 17, 17, 17, 17, 17, 20, 17, 18, 19, 21, 20, 17, 17, 25, 24, 25, 25, 17, 22, 18, 23, 20, 20, 23, 25, 20, 18, 23, 19, 24, 20, 21, 21, 25, 24, 19, 24, 20, 17, 17, 17, 17, 17, 17, 18, 18, 17, 17, 19, 23, 19, 25, 21, 21, 17, 17, 17, 17, 17, 23, 22, 24, 23, 18, 20, 17, 21, 18, 19, 19, 20, 18, 17, 24, 18, 22, 23, 23, 17, 19, 25, 24, 25, 18, 18, 17, 17, 17, 17, 17, 22, 22, 22, 22, 20, 20, 21, 17, 17, 18, 24, 25, 21, 25, 22, 17, 17, 17, 17, 17, 25, 23, 21, 25, 23, 21, 18, 24, 25, 23, 18, 17, 24, 23, 19, 23, 21, 20, 17, 25, 21, 20, 17, 17, 17, 17, 17, 17, 17, 21, 17, 22, 17, 19, 20, 22, 23, 17, 24, 17, 19, 25, 21, 22, 19, 21, 23, 21, 17, 17, 17, 17, 17, 17, 17, 17, 17, 17, 19, 19, 19, 17, 17, 17, 17, 17, 17, 17, 17, 17, 17, 17, 17, 17, 17, 17, 17, 17, 18, 17, 18, 17, 20, 21, 22, 17, 18, 22, 24, 24, 20, 18, 20, 23, 25, 25, 22, 20, 24, 17, 17, 17, 17, 17, 17, 17, 17, 17, 17, 17, 17, 17, 17, 17, 17, 17, 17, 17, 17, 17, 17, 17, 17, 17, 17, 17, 17, 23, 21, 19, 19, 25, 24, 20, 25, 22, 20, 19, 22, 22, 19, 20, 17, 19, 20, 17, 17, 17, 23, 24, 25, 24, 21, 18, 23, 21, 20, 20, 17, 17, 17, 17, 22, 25, 23, 24, 22, 23, 22, 18, 17, 17, 17, 17, 17, 25, 17, 20, 21, 18, 19, 17, 22, 22, 18, 21, 21, 19, 21, 19, 21, 19, 25, 21, 24, 20, 17, 25, 20, 22, 21, 18, 17, 22, 25, 17, 21, 22, 22, 18, 19, 21, 23, 19, 24, 23, 20, 19, 22, 25, 17, 21, 24, 17, 17, 17, 22, 18, 17, 21, 25, 20, 24, 23, 24, 25, 17, 21, 21, 24, 18, 24, 17, 17, 24, 22, 17, 19, 21, 18, 20, 19, 22, 25, 25, 17, 22, 23, 17, 20, 19, 22, 23, 22, 21, 22, 23, 19, 21, 17, 24, 20, 20, 20, 17, 17, 21, 22, 25, 18, 24, 22, 24, 17, 25, 21, 25, 17, 23, 22, 23, 23, 22, 18, 25, 19, 19, 18, 17, 22, 19, 20, 23, 24, 21, 23, 25, 20, 17, 25, 17, 24, 19, 18, 19, 24, 17, 17, 20, 23, 21, 19, 23, 17, 17, 17, 22, 25, 22, 20, 20, 18, 17, 23, 19, 19, 21, 17, 22, 20, 25, 21, 17, 18, 23, 20, 23, 18, 21, 23, 20, 17, 17, 25, 19, 21, 20, 22, 18, 21, 18, 25, 25, 25, 19, 21, 21, 19, 19, 17, 21, 23, 18, 17, 17, 17, 18, 20, 18, 23, 25, 22, 20, 25, 22, 24, 17, 24, 17, 20, 22, 20, 23, 23, 17, 23, 24, 25, 21, 19, 22, 20, 17, 20, 19, 19, 17, 22, 18, 20, 23, 17, 24, 24, 19, 25, 21, 18, 22, 22, 23, 21, 17, 17, 17, 21, 21, 17, 20, 18, 25, 21, 22, 19, 23, 21, 22, 18, 22, 21, 25, 18, 18, 19, 18, 25, 22, 18, 24, 21, 17, 25, 17, 18, 21, 23, 18, 22, 18, 21, 18, 18, 19, 23, 21, 23, 17, 21, 21, 25, 23, 21, 17, 17, 23, 20, 22, 21, 24, 19, 25, 19, 19, 24, 21, 25, 22, 17, 22, 17, 21, 23, 21, 18, 17, 22, 19, 18, 23, 18, 19, 23, 20, 24, 18, 22, 25, 23, 24, 19, 18, 22, 21, 25, 21, 24, 21, 20, 25, 19, 20, 17, 17, 17, 17, 18, 18, 18, 22, 19, 17, 24, 25, 18, 21, 17, 23, 19, 21, 19, 21, 19, 22, 19, 19, 22, 22, 19, 25, 25, 20, 17, 18, 17, 22, 23, 19, 22, 19, 18, 21, 18, 25, 19, 18, 19, 17, 19, 18, 24, 19, 17, 17, 25, 20, 24, 25, 25, 17, 18, 25, 20, 20, 18, 20, 21, 24, 19, 21, 23, 19, 17, 22, 17, 18, 20, 17, 20, 20, 24, 25, 24, 24, 21, 17, 21, 25, 24, 17, 19, 24, 23, 23, 25, 23, 22, 25, 19, 20, 17, 18, 17, 17, 21, 25, 25, 24, 25, 25, 20, 21, 21, 19, 17, 20, 20, 22, 20, 22, 17, 23, 23, 21, 25, 24, 21, 22, 25, 23, 18, 24, 17, 17, 23, 21, 19, 18, 19, 25, 22, 22, 23, 24, 21, 21, 24, 25, 22, 22, 19, 24, 17, 17, 22, 23, 17, 17, 22, 24, 19, 21, 20, 24, 24, 23, 23, 17, 25, 18, 17, 25, 22, 21, 22, 23, 23, 17, 22, 23, 25, 24, 24, 17, 17, 20, 17, 21, 24, 17, 21, 24, 24, 21, 21, 19, 25, 19, 23, 23, 25, 24, 17, 17, 17, 19, 19, 21, 17, 25, 20, 22, 24, 19, 18, 17, 19, 20, 22, 17, 21, 22, 17, 25, 19, 18, 24, 18, 23, 21, 25, 24, 17, 21, 25, 20, 24, 17, 22, 17, 17, 21, 17, 17, 23, 21, 22, 24, 17, 18, 21, 25, 17, 17, 24, 22, 22, 23, 18, 24, 20, 25, 19, 22, 18, 23, 19, 22, 18, 19, 21, 22, 17, 19, 19, 18, 25, 19, 17, 19, 21, 23, 20, 25, 24, 22, 25, 25, 23, 22, 18, 24, 24, 19, 22, 19, 25, 21, 21, 22, 24, 25, 17, 17, 17, 17, 18, 20, 20, 20, 22, 20, 18, 21, 23, 17, 20, 19, 18, 19, 19, 19, 17, 23, 23, 22, 24, 19],
         "height":25,
         "id":1,
         "name":"Ground",
         "opacity":1,
         "type":"tilelayer",
         "visible":true,
         "width":50,
         "x":0,
         "y":0
        }, 
        {
         "data":[0, 0, 0, 0, 0, 0, 0, 0, 0, 0, 0, 0, 0, 0, 0, 0, 0, 0, 0, 0, 0, 0, 0, 0, 0, 0, 0, 0, 0, 0, 0, 0, 0, 0, 0, 0, 0, 0, 0, 0, 0, 0, 0, 0, 0, 0, 0, 0, 0, 0, 0, 0, 0, 0, 0, 0, 0, 0, 0, 0, 0, 0, 0, 0, 0, 0, 0, 0, 0, 0, 0, 0, 0, 0, 0, 0, 0, 0, 0, 0, 0, 0, 0, 0, 0, 0, 0, 0, 0, 0, 0, 0, 0, 0, 0, 0, 0, 0, 0, 0, 0, 0, 0, 0, 0, 0, 1, 2, 3, 4, 0, 0, 0, 0, 0, 0, 0, 0, 0, 0, 0, 0, 0, 0, 0, 0, 0, 0, 0, 0, 0, 0, 0, 0, 0, 0, 0, 0, 0, 0, 0, 0, 0, 0, 0, 0, 0, 0, 0, 0, 0, 0, 0, 0, 0, 0, 5, 6, 7, 8, 0, 0, 0, 0, 0, 0, 0, 0, 0, 0, 0, 0, 0, 0, 0, 0, 0, 0, 0, 0, 0, 0, 0, 0, 0, 0, 0, 0, 0, 0, 0, 0, 0, 0, 0, 0, 0, 0, 0, 0, 0, 0, 0, 0, 0, 0, 9, 10, 11, 12, 0, 0, 0, 0, 0, 0, 0, 0, 0, 0, 0, 0, 0, 0, 0, 0, 0, 0, 0, 0, 0, 0, 0, 0, 0, 0, 0, 0, 0, 0, 0, 0, 0, 0, 0, 0, 0, 0, 0, 0, 0, 0, 0, 0, 0, 0, 13, 14, 15, 16, 0, 0, 0, 0, 0, 0, 0, 0, 0, 0, 0, 0, 0, 0, 0, 0, 0, 0, 0, 0, 0, 0, 0, 0, 0, 0, 0, 0, 0, 0, 0, 0, 0, 0, 0, 0, 0, 0, 0, 0, 0, 0, 0, 0, 0, 0, 0, 0, 0, 0, 0, 0, 0, 0, 0, 0, 0, 0, 0, 0, 0, 0, 0, 0, 0, 0, 0, 0, 0, 0, 0, 0, 0, 0, 0, 0, 0, 0, 0, 0, 0, 0, 0, 0, 0, 0, 0, 0, 0, 0, 0, 0, 0, 0, 0, 0, 0, 0, 0, 0, 0, 0, 0, 0, 0, 0, 0, 0, 0, 0, 0, 0, 0, 0, 0, 0, 0, 0, 0, 0, 0, 0, 0, 0, 0, 0, 0, 0, 0, 0, 0, 0, 0, 0, 0, 0, 0, 0, 0, 0, 0, 0, 0, 0, 0, 0, 0, 0, 0, 0, 0, 0, 0, 0, 0, 0, 0, 0, 0, 0, 0, 0, 0, 0, 0, 0, 0, 0, 0, 0, 0, 0, 0, 0, 0, 0, 0, 0, 0, 0, 0, 0, 0, 0, 0, 0, 0, 0, 0, 0, 0, 0, 0, 0, 0, 0, 0, 0, 0, 0, 0, 0, 0, 0, 0, 0, 0, 0, 0, 0, 0, 0, 0, 0, 0, 0, 0, 0, 0, 0, 0, 0, 0, 0, 0, 0, 0, 0, 0, 0, 0, 0, 0, 0, 1, 2, 3, 4, 0, 0, 0, 0, 0, 0, 0, 0, 0, 0, 0, 0, 0, 0, 0, 0, 0, 0, 0, 0, 0, 0, 0, 0, 0, 0, 0, 0, 0, 0, 0, 0, 0, 0, 0, 0, 0, 0, 0, 0, 0, 0, 0, 0, 0, 0, 5, 6, 7, 8, 0, 0, 0, 0, 0, 0, 0, 0, 0, 0, 0, 0, 0, 0, 0, 0, 0, 0, 0, 0, 0, 0, 0, 0, 0, 0, 0, 0, 0, 0, 0, 0, 0, 0, 0, 0, 0, 0, 0, 0, 0, 0, 0, 0, 0, 0, 9, 10, 11, 12, 0, 0, 0, 0, 0, 0, 0, 0, 0, 0, 0, 0, 0, 0, 0, 0, 0, 0, 0, 0, 0, 0, 0, 0, 0, 0, 0, 0, 0, 0, 0, 0, 0, 0, 0, 0, 0, 0, 0, 0, 0, 0, 0, 0, 0, 0, 13, 14, 15, 16, 0, 0, 0, 0, 0, 0, 0, 0, 0, 0, 0, 0, 0, 0, 0, 0, 0, 0, 1, 2, 3, 4, 0, 0, 0, 0, 0, 0, 0, 0, 0, 0, 0, 0, 0, 0, 0, 0, 0, 1, 2, 3, 4, 0, 0, 0, 0, 0, 0, 0, 0, 0, 1, 2, 3, 4, 0, 0, 0, 0, 0, 0, 0, 0, 0, 0, 0, 0, 5, 6, 7, 8, 0, 0, 0, 0, 0, 0, 0, 0, 0, 0, 0, 0, 0, 0, 0, 0, 0, 5, 6, 7, 8, 0, 0, 0, 0, 0, 0, 0, 0, 0, 5, 6, 7, 8, 0, 0, 0, 0, 0, 0, 0, 0, 0, 0, 0, 0, 9, 10, 11, 12, 0, 0, 0, 0, 0, 0, 0, 0, 0, 0, 0, 0, 0, 0, 0, 0, 0, 9, 10, 11, 12, 0, 1, 2, 3, 4, 0, 0, 0, 0, 9, 10, 11, 12, 0, 0, 1, 2, 3, 4, 0, 0, 0, 0, 0, 0, 13, 14, 15, 16, 0, 0, 0, 0, 0, 0, 0, 0, 0, 0, 0, 0, 0, 0, 0, 0, 0, 13, 14, 15, 16, 0, 5, 6, 7, 8, 0, 0, 0, 0, 13, 14, 15, 16, 0, 0, 5, 6, 7, 8, 0, 0, 0, 0, 0, 0, 0, 0, 1, 2, 3, 4, 0, 0, 0, 0, 0, 0, 0, 0, 0, 0, 1, 2, 3, 4, 0, 0, 0, 0, 0, 0, 9, 10, 11, 12, 0, 0, 0, 0, 0, 0, 0, 0, 0, 0, 9, 10, 11, 12, 0, 0, 0, 0, 0, 0, 0, 0, 5, 6, 7, 8, 0, 0, 0, 0, 0, 0, 0, 0, 0, 0, 5, 6, 7, 8, 0, 0, 0, 0, 1, 2, 3, 4, 15, 16, 0, 0, 0, 0, 0, 0, 0, 0, 0, 0, 13, 14, 15, 16, 0, 1, 2, 3, 4, 0, 0, 0, 9, 10, 11, 12, 0, 0, 0, 0, 0, 0, 0, 0, 0, 0, 9, 10, 11, 12, 0, 0, 0, 0, 5, 6, 7, 8, 0, 0, 0, 0, 0, 0, 0, 0, 0, 0, 0, 0, 0, 0, 0, 0, 0, 5, 6, 7, 8, 0, 0, 0, 13, 14, 15, 16, 0, 0, 0, 0, 0, 0, 0, 0, 0, 0, 13, 14, 15, 16, 0, 0, 0, 0, 9, 10, 11, 12, 0, 0, 0, 0, 0, 0, 0, 0, 0, 0, 0, 0, 0, 0, 0, 0, 0, 9, 10, 11, 12, 0, 0, 0, 0, 0, 0, 0, 0, 0, 0, 0, 0, 0, 0, 0, 0, 0, 0, 0, 0, 0, 0, 0, 0, 0, 13, 14, 15, 16, 0, 0, 0, 0, 0, 0, 0, 0, 0, 0, 0, 0, 0, 0, 0, 0, 0, 13, 14, 15, 16, 0, 0, 0, 0, 0, 0, 0, 0, 0, 0, 0, 0, 0, 0, 0, 0, 0, 0, 0, 0, 0, 0, 0, 0, 0, 0, 0, 0, 0, 0, 0, 0, 0, 0, 0, 0, 0, 0, 0, 0, 0, 0, 0, 0, 0, 0, 0, 0, 0, 0, 0, 0, 0, 0, 0, 0, 0, 0, 0, 0, 0, 0, 0, 0, 0, 0, 0, 0, 0, 0, 0, 0, 0, 0, 0, 0, 0, 0, 0, 0, 0, 0, 0, 0, 0, 0, 0, 0, 0, 0, 0, 0, 0, 0, 0, 0, 0, 0, 0, 0, 0, 0, 0, 0, 0, 0, 0, 0, 0, 0, 0, 0, 0, 0, 0, 0, 0, 0, 0, 0, 0, 0, 0, 0, 0, 0, 0, 0, 0, 0, 0, 0, 0, 0, 0],
         "height":25,
         "id":2,
         "name":"Tree1",
         "opacity":1,
         "type":"tilelayer",
         "visible":true,
         "width":50,
         "x":0,
         "y":0
        }, 
        {
         "data":[0, 0, 0, 0, 0, 0, 0, 0, 0, 0, 0, 0, 0, 0, 0, 0, 0, 0, 0, 0, 0, 0, 0, 0, 0, 0, 0, 0, 0, 0, 0, 0, 0, 1, 2, 3, 4, 0, 0, 0, 0, 0, 5, 6, 7, 8, 0, 0, 0, 0, 0, 0, 0, 0, 0, 0, 0, 0, 0, 0, 0, 0, 0, 0, 0, 0, 0, 0, 0, 0, 0, 0, 0, 0, 0, 0, 0, 0, 0, 0, 0, 0, 0, 5, 6, 7, 8, 0, 0, 0, 0, 0, 9, 10, 11, 12, 0, 0, 0, 0, 0, 0, 0, 0, 0, 0, 0, 0, 0, 0, 0, 0, 0, 0, 0, 0, 0, 0, 0, 0, 0, 0, 0, 0, 0, 0, 0, 0, 0, 0, 0, 0, 0, 9, 10, 11, 12, 0, 0, 0, 0, 0, 13, 14, 15, 16, 0, 0, 0, 0, 0, 0, 0, 0, 0, 0, 0, 0, 0, 0, 0, 0, 0, 0, 0, 0, 0, 0, 0, 0, 1, 2, 3, 4, 0, 0, 0, 0, 0, 0, 0, 0, 0, 13, 14, 15, 16, 0, 0, 0, 0, 0, 0, 0, 0, 0, 0, 0, 0, 0, 0, 0, 0, 0, 0, 0, 0, 0, 0, 0, 0, 0, 0, 0, 0, 0, 0, 0, 0, 0, 5, 6, 7, 8, 0, 0, 0, 0, 0, 0, 0, 0, 0, 0, 0, 0, 0, 0, 0, 0, 0, 0, 0, 0, 0, 0, 0, 0, 0, 0, 0, 0, 0, 0, 0, 0, 0, 0, 0, 0, 0, 0, 0, 0, 0, 0, 0, 0, 0, 0, 9, 10, 11, 12, 0, 0, 0, 0, 0, 0, 0, 0, 0, 0, 0, 0, 0, 0, 0, 0, 0, 0, 0, 0, 0, 0, 0, 0, 0, 0, 0, 0, 0, 0, 0, 0, 0, 0, 0, 0, 0, 0, 0, 0, 0, 0, 0, 0, 0, 0, 13, 14, 15, 16, 0, 0, 0, 0, 0, 0, 0, 0, 0, 0, 0, 0, 0, 0, 0, 0, 0, 0, 0, 0, 0, 0, 0, 0, 0, 0, 0, 0, 0, 0, 0, 0, 0, 0, 0, 0, 0, 0, 0, 0, 0, 0, 0, 0, 0, 0, 0, 0, 0, 0, 0, 0, 0, 0, 0, 1, 2, 3, 4, 0, 0, 0, 0, 0, 0, 0, 0, 0, 0, 0, 0, 0, 0, 0, 0, 0, 0, 0, 0, 0, 0, 0, 0, 0, 0, 0, 0, 0, 0, 0, 0, 0, 0, 0, 0, 0, 0, 0, 0, 0, 0, 0, 0, 0, 0, 5, 6, 7, 8, 0, 0, 0, 0, 0, 0, 0, 0, 0, 0, 0, 0, 0, 0, 0, 0, 0, 0, 0, 0, 0, 0, 0, 0, 0, 0, 0, 0, 0, 0, 0, 0, 0, 0, 0, 0, 0, 0, 0, 0, 0, 0, 0, 0, 0, 0, 9, 10, 11, 12, 0, 0, 0, 0, 0, 0, 0, 0, 0, 0, 0, 0, 0, 0, 0, 0, 0, 0, 0, 0, 0, 0, 0, 0, 0, 0, 0, 0, 0, 0, 0, 0, 0, 0, 0, 0, 0, 0, 0, 0, 0, 0, 0, 0, 0, 0, 13, 14, 15, 16, 0, 0, 0, 0, 0, 0, 0, 0, 0, 0, 0, 0, 0, 0, 0, 0, 0, 0, 0, 0, 0, 0, 0, 0, 0, 0, 0, 0, 0, 0, 0, 0, 0, 0, 0, 0, 0, 0, 0, 0, 0, 0, 0, 0, 0, 0, 0, 0, 0, 0, 0, 0, 0, 0, 0, 0, 0, 0, 0, 0, 0, 0, 0, 0, 0, 0, 0, 0, 0, 0, 0, 0, 0, 0, 0, 0, 0, 0, 0, 0, 0, 0, 0, 0, 0, 0, 0, 0, 0, 0, 0, 0, 0, 0, 0, 0, 0, 0, 0, 0, 0, 0, 0, 0, 0, 0, 0, 0, 0, 0, 0, 0, 0, 0, 0, 0, 0, 0, 0, 0, 0, 0, 0, 0, 0, 0, 0, 0, 0, 0, 0, 0, 0, 0, 0, 0, 0, 0, 0, 0, 0, 0, 0, 0, 0, 0, 0, 0, 0, 0, 0, 0, 0, 0, 0, 0, 0, 0, 0, 0, 0, 0, 0, 0, 0, 0, 0, 0, 0, 0, 0, 0, 0, 0, 0, 0, 0, 0, 0, 0, 0, 1, 2, 3, 4, 0, 0, 0, 0, 0, 0, 0, 0, 0, 0, 0, 0, 0, 0, 0, 0, 0, 0, 0, 0, 0, 0, 0, 0, 0, 0, 0, 0, 0, 0, 0, 0, 0, 0, 0, 0, 0, 0, 0, 0, 0, 0, 0, 0, 0, 0, 5, 6, 7, 8, 0, 0, 0, 0, 0, 0, 0, 0, 0, 0, 0, 0, 0, 0, 0, 0, 0, 0, 0, 0, 0, 0, 0, 0, 0, 0, 0, 0, 0, 0, 0, 0, 0, 0, 0, 0, 0, 0, 0, 0, 0, 0, 0, 0, 0, 0, 9, 10, 11, 12, 0, 0, 0, 0, 0, 0, 0, 0, 0, 0, 0, 0, 0, 0, 0, 0, 0, 0, 0, 0, 0, 0, 0, 0, 0, 0, 0, 0, 0, 0, 0, 0, 0, 0, 0, 0, 0, 0, 0, 0, 0, 0, 0, 0, 0, 0, 13, 14, 15, 16, 0, 0, 0, 0, 0, 0, 0, 0, 0, 0, 0, 0, 0, 0, 0, 0, 0, 0, 0, 0, 0, 0, 0, 0, 0, 0, 0, 0, 0, 0, 0, 0, 0, 0, 0, 0, 0, 0, 0, 0, 0, 0, 0, 0, 0, 0, 0, 0, 0, 0, 0, 0, 0, 0, 0, 0, 0, 0, 0, 0, 0, 0, 0, 0, 0, 0, 0, 0, 0, 0, 0, 0, 0, 0, 0, 0, 0, 0, 0, 0, 0, 0, 0, 0, 0, 0, 0, 0, 0, 0, 0, 0, 0, 0, 0, 0, 0, 0, 0, 0, 0, 0, 0, 0, 0, 0, 0, 0, 0, 0, 0, 0, 0, 0, 0, 0, 0, 0, 0, 0, 0, 0, 0, 0, 0, 0, 0, 0, 0, 0, 0, 0, 0, 0, 0, 0, 0, 0, 0, 0, 0, 0, 0, 0, 0, 0, 0, 0, 0, 0, 0, 0, 0, 0, 0, 0, 0, 0, 0, 0, 0, 0, 0, 0, 0, 0, 0, 0, 0, 0, 0, 0, 0, 0, 0, 0, 0, 0, 0, 0, 0, 0, 0, 0, 0, 0, 0, 0, 0, 0, 0, 0, 0, 0, 0, 0, 0, 0, 0, 0, 0, 0, 0, 0, 0, 0, 0, 0, 0, 0, 0, 0, 0, 0, 0, 0, 0, 0, 0, 0, 0, 0, 0, 0, 0, 0, 0, 0, 0, 0, 0, 0, 0, 0, 0, 0, 0, 0, 0, 0, 0, 0, 0, 0, 0, 0, 0, 0, 0, 0, 0, 0, 0, 0, 0, 0, 0, 0, 0, 0, 0, 0, 0, 0, 0, 0, 0, 0, 0, 0, 0, 0, 0, 0, 0, 0, 0, 0, 0, 0, 0, 0, 0, 0, 0, 0, 0, 0, 0, 0, 0, 0, 0, 0, 0, 0, 0, 0, 0, 0, 0, 0, 0, 0, 0, 0, 0, 0, 0, 0, 0, 0, 0, 0, 0, 0, 0, 0, 0, 0, 0, 0, 0, 0, 0, 0, 0, 0, 0, 0, 0, 0, 0, 0, 0, 0, 0, 0, 0, 0, 0, 0, 0, 0, 0, 0, 0, 0, 0, 0, 0, 0, 0, 0, 0, 0, 0, 0, 0, 0, 0, 0, 0, 0, 0, 0, 0, 0, 0, 0, 0, 0, 0, 0, 0, 0, 0, 0, 0, 0, 0, 0],
         "height":25,
         "id":6,
         "name":"Tree2",
         "opacity":1,
         "type":"tilelayer",
         "visible":true,
         "width":50,
         "x":0,
         "y":0
        }],
 "nextlayerid":7,
 "nextobjectid":8,
 "orientation":"orthogonal",
 "renderorder":"right-down",
 "tiledversion":"1.3.4",
 "tileheight":32,
 "tilesets":[
        {
         "columns":28,
         "firstgid":1,
         "image":"homestead_spritesheet.png",
         "imageheight":32,
         "imagewidth":896,
         "margin":0,
         "name":"homestead_spritesheet",
         "spacing":0,
         "tilecount":28,
         "tileheight":32,
         "tiles":[
                {
                 "id":9,
                 "properties":[
                        {
                         "name":"collide",
                         "type":"bool",
                         "value":true
                        }]
                }, 
                {
                 "id":10,
                 "properties":[
                        {
                         "name":"collide",
                         "type":"bool",
                         "value":true
                        }]
                }],
         "tilewidth":32
        }],
 "tilewidth":32,
 "type":"map",
 "version":1.2,
 "width":50
}